2016/06/01 * guld pre-founding contributions
    larsxschneider:Assets                              100 GULD
    larsxschneider:Income:guld                        -100 GULD
    guld:Liabilities                         -100 GULD
    guld:Equity:larsxschneider                          100 GULD
